[
    {
      "id" : "1",
      "name" : "The Alchemist",
      "author" : "Paulo Coelho",
      "date" : "",
      "publishedDate" : "01-07-1988",
      "image" : "https://image.ibb.co/mMuGNJ/10.jpg",
      "description" : "Santiago meets an Englishman who wants to learn the secret of alchemy, or turning any metal into gold, from a famous alchemist who lives at an oasis on the way to the pyramids. While traveling, Santiago begins listening to the desert and discovering the Soul of the World."
    }
  ,
    {
      "id" : "2",
      "name" : "Second Son",
      "date" : "",
      "author" : "Ryan Sallans",
      "publishedDate" : "01-07-1988",
      "image" : "https://image.ibb.co/ja5Cwd/3.jpg",
      "description" : "Second Son is a unique lens on life and love, intimately exploring the transition experience of Ryan Sallans - born Kimberly Ann Sallans. Ride alongside Ryan's transition from a child to a body-obsessed young woman with an eating disorder; from female to male, daughter to son, and finally a beloved partner to a cherished fiance'."
    }
  ,
    {
      "id" : "3",
      "name" : "Beautiful",
      "author" : "Christina Lauren",
      "date" : "",
      "publishedDate" : "01-07-1988",
      "image" : "https://image.ibb.co/jmpi2J/1.jpg",
      "description" : "After walking in on her boyfriend shagging another girl in their place, Pippa Bay Cox ditches London for the States to go on a drunken road trip with Ruby Miller and some of her Beautiful friends."
    }
  ,
    {
      "id" : "4",
      "name" : "Conflict 101",
      "author" : "Susan H. Shearouse",
      "date" : "",
      "publishedDate" : "01-07-1988",
      "image" : "https://image.ibb.co/kEYnUy/4.jpg",
      "description" : "We all know conflict is unavoidable…especially in the workplace. Whether it’s a fight over resources, a disagreement about how to get things done, or an argument stemming from perceived differences in identities or values, it’s a manager’s role to navigate relationships, and build compromises and collaborations."
    }
  ,
    {
      "id" : "5",
      "name" : "Priest",
      "author" : "Ken Bruen",
      "date" : "",
      "publishedDate" : "01-07-1988",
      "image" : "https://image.ibb.co/j7iMpy/5.jpg",
      "description" : "We all know conflict is unavoidable…especially in the workplace. Whether it’s a fight over resources, a disagreement about how to get things done, or an argument stemming from perceived differences in identities or values, it’s a manager’s role to navigate relationships, and build compromises and collaborations."

    }
  ,
    {
      "id" : "6",
      "name" : "Mirage",
      "author" : "Matt Ruff",
      "date" : "",
      "publishedDate" : "01-07-1988",
      "image" : "https://image.ibb.co/nOPGNJ/2.jpg",
      "description" : "We all know conflict is unavoidable…especially in the workplace. Whether it’s a fight over resources, a disagreement about how to get things done, or an argument stemming from perceived differences in identities or values, it’s a manager’s role to navigate relationships, and build compromises and collaborations."
    }
  ,
    {
      "id" : "7",
      "name" : "Salt Water Buddha",
      "author" : "Jaimal Yogis",
      "date" : "",
      "publishedDate" : "01-07-1988",
      "image" : "https://image.ibb.co/ixcHXJ/4.jpg",
      "description" : "We all know conflict is unavoidable…especially in the workplace. Whether it’s a fight over resources, a disagreement about how to get things done, or an argument stemming from perceived differences in identities or values, it’s a manager’s role to navigate relationships, and build compromises and collaborations."
    }
  ,
    {
      "id" : "8",
      "name" : "Harry Potter and the half blood prince",
      "author" : "j.k. rowling",
      "date" : "",
      "publishedDate" : "01-07-1988",
      "image" : "https://image.ibb.co/j4fRRd/1.jpg",
      "description" : "We all know conflict is unavoidable…especially in the workplace. Whether it’s a fight over resources, a disagreement about how to get things done, or an argument stemming from perceived differences in identities or values, it’s a manager’s role to navigate relationships, and build compromises and collaborations."
    }
  ,
    {
      "id" : "9",
      "name" : "the monster hunter",
      "author" : "kit cox",
      "date" : "",
      "publishedDate" : "01-07-1988",
      "image" : "https://image.ibb.co/kKbpey/2.jpg",
      "description" : "We all know conflict is unavoidable…especially in the workplace. Whether it’s a fight over resources, a disagreement about how to get things done, or an argument stemming from perceived differences in identities or values, it’s a manager’s role to navigate relationships, and build compromises and collaborations."
    }
  ,
    {
      "id" : "10",
      "name" : "The man who knew too much",
      "author" : "alan turing",
      "date" : "",
      "publishedDate" : "01-07-1988",
      "image" : "https://image.ibb.co/nercXJ/3.jpg",
      "description" : "We all know conflict is unavoidable…especially in the workplace. Whether it’s a fight over resources, a disagreement about how to get things done, or an argument stemming from perceived differences in identities or values, it’s a manager’s role to navigate relationships, and build compromises and collaborations."
    }
  ]